{
    "tags": {
        "allowUnknownTags": true
    },
    "source": {
        "include": ["./index.js", "./lib"],
        "exclude": []
    },
    "opts": {
        "encoding": "utf8",
        "recurse": true,
        "private": true
    }
}